<svg viewBox="0 0 545 273.56" xmlns="http://www.w3.org/2000/svg">
  <g fill="#fff">
    <path d="m94.11 448.75v29.77c0 11.41-4.78 16.93-14.7 16.93s-13.92-5.88-13.92-16.8v-29.94c0-11.25 5.45-16.69 14.45-16.69 9.26-.02 14.17 5.76 14.17 16.73zm-20.19-.66v31.44c0 5.89 2.14 8.45 5.86 8.45 4 0 5.9-2.43 5.9-8.65v-31.28c0-5.59-1.81-8.48-5.92-8.48-3.86 0-5.84 2.66-5.84 8.52z" transform="translate(-25 -284.23)"/>
    <path d="m104.34 432.89h23v7.67h-14.72v17.86h13.92v7.67h-13.92v28.5h-8.28z" transform="translate(-25 -284.23)"/>
    <path d="m34.94 354.35h-9.94v-7.67h28.16v7.67h-9.95v54h-8.27z" transform="translate(-25 -284.23)"/>
    <path d="m59.5 346.68h8.27v24.87h11.34v-24.87h8.27v61.7h-8.27v-29.22h-11.34v29.22h-8.27z" transform="translate(-25 -284.23)"/>
    <path d="m112.09 345.48c-9 0-14.51 5.42-14.72 16.49h8.63c0-6 2-8.76 6-8.76h.14c4 0 6 2.75 6 8.76h8.66c-.2-11.07-5.71-16.44-14.71-16.49z" transform="translate(-25 -284.23)"/>
    <path d="m112.1 409.8c9 0 14.51-5.42 14.72-16.48h-8.65c0 6-2 8.75-6 8.75h-.17c-4 0-6-2.74-6-8.75h-8.62c.21 11.06 5.73 16.44 14.72 16.48z" transform="translate(-25 -284.23)"/>
    <path d="m72.37 76.72h8.65v32.49h-8.65z"/>
    <path d="m108.48 361.19h7.65v28.96h-7.65z" transform="matrix(0 1 -1 0 462.97 -20.86)"/>
    <path d="m93.16 76.67h8.65v14.2h-8.65z"/>
    <path d="m332.19 317.61v59.08c0 22.64-9.5 33.59-29.19 33.59-19.5 0-27.61-11.67-27.61-33.34v-59.4c0-22.33 10.82-33.12 28.67-33.12 18.37 0 28.13 11.41 28.13 33.19zm-40.07-1.32v62.4c0 11.68 4.23 16.76 11.63 16.76 7.9 0 11.71-4.82 11.71-17.16v-62.07c0-11.1-3.61-16.84-11.76-16.84-7.7 0-11.58 5.3-11.58 16.91z" transform="translate(-25 -284.23)"/>
    <path d="m349.67 408.45v-122.45h19.2c5.61 19.55 21.23 81.55 22.83 89.52h.24c-.81-15.65-.92-32.88-.92-52.93v-36.59h15.26v122.45h-18.51c-5-18.14-21.79-85.38-23.48-92.47h-.18c.86 14.8.95 32.64.95 54.68v37.79z" transform="translate(-25 -284.23)"/>
    <path d="m425.7 286.08h16.16v56.92h.14c4.86-11.84 16.49-39.51 23.73-56.88h18.27l-22.76 48 24.41 74.42h-17.91l-17.69-57.25-8.19 16.71v40.5h-16.16z" transform="translate(-25 -284.23)"/>
    <path d="m509.61 373.13v7.37c0 10.13 3.26 15.66 11 15.66 8 0 10.51-6.71 10.51-17 0-13.65-3-18.36-16-28.58s-20-16.79-20-34.88c0-15.87 4.78-31.57 25.66-31.51s24.8 14.49 24.8 28.72v6.18h-16.26v-5.74c0-9.21-1.67-15-8.83-15s-8.94 6.19-8.94 14.92c0 9.8 1.91 14.07 12.87 22.21 17.76 13.25 23.27 20.82 23.27 41.24 0 17.3-5.59 33.43-27.51 33.43-21.43 0-27-13.81-27-29.94v-7.16z" transform="translate(-25 -284.23)"/>
    <path d="m175.17 45.97h16.91v78.27h-16.91z"/>
    <path d="m218.65 45.86h16.92v78.38h-16.92z"/>
    <path d="m252.13 338.94a8.46 8.46 0 0 1 -8.46-8.46c0-.19-.3-20.63-13.29-27.84-13 7.21-13.29 27.65-13.29 27.87a8.48 8.48 0 0 1 -8.46 8.41 8.44 8.44 0 0 1 -8.43-8.44c0-1.44.31-35.39 27.32-45a8.78 8.78 0 0 1 5.77 0c27 9.65 27.33 43.6 27.33 45a8.46 8.46 0 0 1 -8.49 8.46z" transform="translate(-25 -284.23)"/>
    <path d="m131.68 45.97h16.91v78.27h-16.91z"/>
    <g transform="translate(-25 -284.23)">
      <path d="m208.63 338.94a8.46 8.46 0 0 1 -8.46-8.46c0-.19-.3-20.63-13.29-27.84-13 7.21-13.29 27.65-13.29 27.87a8.48 8.48 0 0 1 -8.46 8.41 8.44 8.44 0 0 1 -8.43-8.44c0-1.44.31-35.39 27.32-45a8.78 8.78 0 0 1 5.77 0c27 9.65 27.33 43.6 27.33 45a8.46 8.46 0 0 1 -8.49 8.46z"/>
      <path d="m157 433.39h16.19v57h.19c4.87-11.86 16.52-39.58 23.77-57h18.23l-22.8 48.09 24.42 74.59h-17.91l-17.73-57.38-8.21 16.78v40.6h-16.15z"/>
      <path d="m245.94 433.39v122.68h-16.44v-122.68z"/>
      <path d="m292.57 529.38c0 15.32-1.84 28.15-22.3 28.15a60.71 60.71 0 0 1 -8.95-.75v-14.09a43.08 43.08 0 0 0 5.75.36c6.61 0 9.05-1.93 9.05-11.56v-98.1h16.45z"/>
      <path d="m369.48 464.93v59.19c0 22.69-9.52 33.67-29.25 33.67-19.54 0-27.66-11.69-27.66-33.41v-59.53c0-22.37 10.84-33.19 28.73-33.19 18.4 0 28.18 11.44 28.18 33.27zm-40.15-1.33v62.53c0 11.71 4.24 16.79 11.65 16.79 7.92 0 11.73-4.82 11.73-17.19v-62.2c0-11.12-3.61-16.87-11.78-16.87-7.67 0-11.6 5.34-11.6 16.94z"/>
      <path d="m389.8 556.07v-122.68h19.2c5.62 19.58 21.28 81.72 22.88 89.7h.23c-.81-15.68-.91-32.94-.91-53v-36.7h15.29v122.68h-18.49c-5-18.18-21.84-85.56-23.53-92.66h-.19c.87 14.82 1 32.7 1 54.79v37.87z"/>
      <path d="m493.1 529.38c0 15.32-1.84 28.15-22.31 28.15a60.94 60.94 0 0 1 -9-.75v-14.09a43.33 43.33 0 0 0 5.75.36c6.61 0 9.05-1.93 9.05-11.56v-98.1h16.51z"/>
      <path d="m570 464.93v59.19c0 22.69-9.52 33.67-29.24 33.67-19.54 0-27.67-11.69-27.67-33.41v-59.53c0-22.37 10.84-33.19 28.73-33.19 18.4 0 28.18 11.44 28.18 33.27zm-40.14-1.33v62.53c0 11.71 4.24 16.79 11.65 16.79 7.91 0 11.73-4.82 11.73-17.19v-62.2c0-11.12-3.61-16.87-11.79-16.87-7.67 0-11.59 5.34-11.59 16.94z"/>
    </g>
  </g>
</svg>
